%YAML 1.1
%TAG !u! tag:unity3d.com,2011:
--- !u!1045 &1
EditorBuildSettings:
  m_ObjectHideFlags: 0
  serializedVersion: 2
  m_Scenes:
  - enabled: 1
    path: Assets/MainMenu.unity
  - enabled: 1
    path: Assets/DaBaseGame.unity
  - enabled: 1
    path: Assets/SelectionScreen.unity
  - enabled: 1
    path: Assets/CharacterUnlock.unity
